module gitlab.com/jishrocks/cclient

go 1.15

require (
	gitlab.com/yawning/utls.git v0.0.11-1
	golang.org/x/crypto v0.0.0-20201221181555-eec23a3978ad // indirect
	golang.org/x/net v0.0.0-20210119194325-5f4716e94777
	golang.org/x/sys v0.0.0-20210124154548-22da62e12c0c // indirect
	golang.org/x/text v0.3.5 // indirect
)
